{
    "tracks" : {
        "href" : "https://api.spotify.com/v1/search?query=CHVRCHES&offset=0&limit=1&type=track",
        "items" : [ {
                   "album" : {
                   "album_type" : "album",
                   "external_urls" : {
                   "spotify" : "https://open.spotify.com/album/03U41p2XNP3oP3REeEDMrQ"
                   },
                   "href" : "https://api.spotify.com/v1/albums/03U41p2XNP3oP3REeEDMrQ",
                   "id" : "03U41p2XNP3oP3REeEDMrQ",
                   "images" : [ {
                               "height" : 640,
                               "url" : "https://d3rt1990lpmkn.cloudfront.net/original/32bf4dc081b7c12e40962e0027b6caa2c378855b",
                               "width" : 640
                               }, {
                               "height" : 300,
                               "url" : "https://d3rt1990lpmkn.cloudfront.net/original/f3266080b467fe8c1a2bff398db95648f9e43abb",
                               "width" : 300
                               }, {
                               "height" : 64,
                               "url" : "https://d3rt1990lpmkn.cloudfront.net/original/1bfd8531dfa9c01aaef9ec4903d16cad5b073ece",
                               "width" : 64
                               } ],
                   "name" : "The Bones Of What You Believe",
                   "type" : "album",
                   "uri" : "spotify:album:03U41p2XNP3oP3REeEDMrQ"
                   },
                   "artists" : [ {
                                "external_urls" : {
                                "spotify" : "https://open.spotify.com/artist/3CjlHNtplJyTf9npxaPl5w"
                                },
                                "href" : "https://api.spotify.com/v1/artists/3CjlHNtplJyTf9npxaPl5w",
                                "id" : "3CjlHNtplJyTf9npxaPl5w",
                                "name" : "CHVRCHES",
                                "type" : "artist",
                                "uri" : "spotify:artist:3CjlHNtplJyTf9npxaPl5w"
                                } ],
                   "available_markets" : [ "AD", "BE", "BG", "CY", "CZ", "DK", "EE", "ES", "FI", "FR", "GR", "HU", "IS", "IT", "LI", "LT", "LU", "LV", "MC", "MT", "NL", "NO", "PL", "PT", "RO", "SE", "SI", "SK", "TR" ],
                   "disc_number" : 1,
                   "duration_ms" : 191293,
                   "explicit" : false,
                   "external_ids" : {
                   "isrc" : "GBZN81300014"
                   },
                   "external_urls" : {
                   "spotify" : "https://open.spotify.com/track/31AyUvMRDvZjyQI1N05lsT"
                   },
                   "href" : "https://api.spotify.com/v1/tracks/31AyUvMRDvZjyQI1N05lsT",
                   "id" : "31AyUvMRDvZjyQI1N05lsT",
                   "name" : "The Mother We Share",
                   "popularity" : 0,
                   "preview_url" : "http://d318706lgtcm8e.cloudfront.net/mp3-preview/94a6a71e34711c76f8893e12f548ce39cd65bc25",
                   "track_number" : 1,
                   "type" : "track",
                   "uri" : "spotify:track:31AyUvMRDvZjyQI1N05lsT"
                   } ],
        "limit" : 1,
        "next" : "https://api.spotify.com/v1/search?query=CHVRCHES&offset=1&limit=1&type=track",
        "offset" : 0,
        "previous" : null,
        "total" : 277
    }
}