{
    "albums" : {
        "href" : "https://api.spotify.com/v1/search?query=CHVRCHES&offset=0&limit=1&type=album",
        "items" : [ {
                   "album_type" : "album",
                   "external_urls" : {
                   "spotify" : "https://open.spotify.com/album/03U41p2XNP3oP3REeEDMrQ"
                   },
                   "href" : "https://api.spotify.com/v1/albums/03U41p2XNP3oP3REeEDMrQ",
                   "id" : "03U41p2XNP3oP3REeEDMrQ",
                   "images" : [ {
                               "height" : 640,
                               "url" : "https://d3rt1990lpmkn.cloudfront.net/original/32bf4dc081b7c12e40962e0027b6caa2c378855b",
                               "width" : 640
                               }, {
                               "height" : 300,
                               "url" : "https://d3rt1990lpmkn.cloudfront.net/original/f3266080b467fe8c1a2bff398db95648f9e43abb",
                               "width" : 300
                               }, {
                               "height" : 64,
                               "url" : "https://d3rt1990lpmkn.cloudfront.net/original/1bfd8531dfa9c01aaef9ec4903d16cad5b073ece",
                               "width" : 64
                               } ],
                   "name" : "The Bones Of What You Believe",
                   "type" : "album",
                   "uri" : "spotify:album:03U41p2XNP3oP3REeEDMrQ"
                   } ],
        "limit" : 1,
        "next" : "https://api.spotify.com/v1/search?query=CHVRCHES&offset=1&limit=1&type=album",
        "offset" : 0,
        "previous" : null,
        "total" : 40
    }
}